{
  "$schema": "./projectConfig.schema.json",
  "$idPrefix": "http://example.com/schemas",
  "appName": "FoodStore",
  "version": "0.1",
  "projectId": "foodstore-d4030",
  "siteId": "foodstore-d4030",
  "location": "us-central",
  "GOOGLE_APPLICATION_CREDENTIALS":"/home/node/mana-gudi-admin-web--managudi-admin-web-service-1--key.json",
  "options": {
    "webAPI": {
      "enable": true,
      "stack": "nodejs12_express4_firebase",
      "rootFolder": "/functions",
      "protocol": "http",
      "host": "localhost",
      "port": 5000,
      "productionDomain": "https://foodstore-d4030.web.app",
      "testing": {
        "mocha": true,
        "postman": true,
        "restClient": true
      },
      "deployment": {
        "docker": false,
        "microServices": {
          "enable": true,
          "services": [
            {
              "rootFolder": "service1",
              "models": "users,products"
            },
            {
              "rootFolder": "service2",
              "models": "cart"
            }
          ]
        }
      }
    },
    "webUI": {
      "enable": true,
      "stack": "angularjs5_primeng9",
      "rootFolder": "/public",
      "host":"http://localhost:4201",
      "testing": {
        "selenium": true
      },
      "deployment": {
        "docker": true
      }
    },
    "primaryDatabase": {
      "database": "firestore",
      "url": "mongodb://192.168.1.212:27017/foodstore"
    },
    "cacheDatabase": {
      "database": "redis5",
      "url": "redis://192.168.1.212:6379/0"
    },
    "logDatabase": {
      "database": "elasticsearch7",
      "url": "http://192.168.1.212:9200/"
    },
    "auditTrail": {
      "enable": true,
      "logRepo": "audits",
      "logType": "logs",
      "logDatabase": "$primaryDatabase"
    },
    "errorLogs": {
      "enable": true,
      "logRepo": "errors",
      "logType": "_doc",
      "logDatabase": "$primaryDatabase"
    },
    "authentication": {
      "enable": true,
      "method": "local_jwt",
      "loginField": "users.email",
      "passwordField": "users.password",
      "saltRounds": 10,
      "tokenSecret": "9QJIfN-ykpxZsB3UEHO6eiHAOIskxdrgO9jf5P6s-HA",
      "profileLocation": "$primaryDatabase"
    },
    "authorization": {
      "enable": true
    },
    "roles": {
      "enable": true,
      "roleField": "users.role",
      "rolesAndHierarchy": {
        "SUPERADMIN": 0.0,
        "MANAGER": 1.1,
        "SUPERVISOR": 2.2,
        "USER": 3.3
      }
    },
    "accessControl": {
      "enable": false,
      "method": "RBAC",
      "collectionName": "rbac",
      "cacheIt": false,
      "hashKey": "RBAC"
    },
    "referentialIntegrity": {
      "enable": true,
      "mapping": {
        "carts.customerId": "users.id",
        "carts.productId": "products.id"
      }
    },
    "parentChildLookups":[
      {
        "parent":{"code":"users.id", "name":"users.displayName"},
        "child":{"code":"carts.customerId", "name":"carts.customerName"}
      },
      {
        "parent":{"code":"products.id", "name":"products.name"},
        "child":{"code":"carts.productId", "name":"carts.productName"}
      }
    ],
    "apiGateway": {
      "enable": false,
      "gatewayService": "kong2",
      "basicAuthLoginIdField": "users.email",
      "protocol": "https",
      "adminHost": "192.168.56.101",
      "adminPort": 8444,
      "publicHost": "192.168.56.101",
      "publicPort": 8443
    }
  },
  "models": [
    {
      "name": "users",
      "index": [
        "email",
        "email,displayName"
      ],
      "unique": [
        "email"
      ],
      "required": [
        "displayName",
        "email",
        "password",
        "phoneNumber",
        "role",
        "dob",
        "address.city",
        "address.country",
        "address.city.colony"
      ],
      "primary": [
        "email"
      ],
      "where": [
        "role.code,email",
        "displayName"
      ],
      "defaultOrderBy":"['displayName','asc']",
      "gridCols": [
        "displayName",
        "email",
        "role",
        "dob",
        "ssn",
        "disabled",
        "address.city",
        "address.country"
      ],
      "formExclude": [
        "password"
      ],
      "identifier": "id",
      "partialSearchField":"role",
      "checkIdExists": true,
      "$jsonSchema": {
        "displayName": {
          "bsonType": "string",
          "minLength": 3,
          "maxLength": 50,
          "description": "User name",
          "label": "User Name"
        },
        "email": {
          "bsonType": "string",
          "minLength": 3,
          "maxLength": 50,
          "description": "User login id.",
          "label": "Email"
        },
        "password": {
          "bsonType": "string",
          "minLength": 3,
          "maxLength": 50,
          "description": "Password",
          "label": "Password"
        },
        "phoneNumber": {
          "bsonType": "string",
          "minLength": 10,
          "maxLength": 12,
          "description": "Phone Number",
          "label": "Phone Number"
        },
        "emailVerified": {
          "bsonType": "boolean",
          "description": "Indicates whether the email is verified.",
          "label": "Email Verified"
        },
        "disabled": {
          "bsonType": "boolean",
          "description": "Indicates whether the user is active.",
          "label": "Disabled"
        },
        "photoURL": {
          "bsonType": "string",
          "minLength": 0,
          "maxLength": 100,
          "description": "User Phogo URL",
          "label": "Photo URL"
        },
        "role": {
          "bsonType": "object",
          "description": "User role.",
          "label": "Role",
          "properties":{
            "code":{
              "bsonType":"decimal",
              "label":"Role Code",
              "description": "User role code"
            },
            "name":{
              "bsonType":"string",
              "minLength": 3,
              "maxLength": 100,
              "label":"Role Name",
              "description": "User role name"
            }
      }
        },
        "dob": {
          "bsonType": "date",
          "description": "Date of birth.",
          "label": "Date of Birth"
        },
        "ssn": {
          "bsonType": "int",
          "description": "Social Security Number",
          "label": "SSN"
        },
        "address": {
          "bsonType": "object",
          "description": "User address.",
          "label": "Address",
          "properties": {
            "city": {
              "bsonType": "object",
              "label": "City",
              "properties": {
                "colony": {
                  "bsonType": "string",
                  "description": "colony.",
                  "label": "Colony"
                },
                "foundedon": {
                  "bsonType": "date",
                  "description": "foundedon.",
                  "label": "FoundedOn"
                }
              }
            },
            "country": {
              "bsonType": "string",
              "label": "Country",
              "minLength": 2,
              "maxLength": 100
            }            
          }
        }
      },
      "createSampleData": true,
      "mockerSchema": {
        "displayName": {
          "faker": "name.firstName"
        },
        "email": {
          "faker": "internet.email"
        },
        "password": {
          "faker": "internet.password"
        },
        "phoneNumber": {
          "faker": "phone.phoneNumber(+1##########)"
        },
        "emailVerified": {
          "faker": "random.boolean"
        },
        "disabled": {
          "values": [
            false
          ]
        },
        "photoURL": {
          "values": [
            "http://myphotosdfsf.com"
          ]
        },
        "role": {
          "code":{
            "values": [0.0,1.1,2.2,3.3]
          },
          "object.role.code===0.0,name":{"static":"SUPERADMIN"},
          "object.role.code===1.1,name":{"static":"MANAGER"},
          "object.role.code===2.2,name":{"static":"SUPERVISOR"},
          "object.role.code===3.3,name":{"static":"USER"}
        },
        "dob": {
          "faker": "date.past"
        },
        "ssn": {
          "faker": "random.number({\"min\":111111111,\"max\":999999999,\"precision\":1})"
        },
        "address": {
          "city": {
            "colony":{
              "faker": "address.city"
            },
            "foundedon":{
              "faker": "date.past"
            }
          },
          "country": {
            "faker": "address.country"
          }
        }
      }
    },
    {
      "name": "products",
      "index": [
        "name"
      ],
      "unique": [
        "name"
      ],
      "required": [
        "name"
      ],
      "primary": [
        "name",
        "price"
      ],
      "where": [
        "name,desc"
      ],
      "defaultOrderBy":"['name','asc']",
      "gridCols": [
        "name",
        "desc",
        "price"
      ],
      "formExclude": [],
      "identifier": "id",
      "partialSearchField":"name",
      "checkIdExists": true,
      "$jsonSchema": {
        "name": {
          "bsonType": "string",
          "minLength": 5,
          "maxLength": 50,
          "description": "Name of the product",
          "label": "Product Name"
        },
        "desc": {
          "bsonType": "string",
          "minLength": 5,
          "maxLength": 200,
          "description": "Description of the product",
          "label": "Product Description"
        },
        "price": {
          "bsonType": "decimal",
          "description": "Product price",
          "label": "Unit Price"
        }
      },
      "createSampleData": true,
      "mockerSchema": {
        "name": {
          "faker": "commerce.productName"
        },
        "desc": {
          "faker": "random.alphaNumeric(100)"
        },
        "price": {
          "faker": "random.number({\"min\":100,\"max\":1000,\"precision\":2})"
        }
      }
    },
    {
      "name": "carts",
      "index": [],
      "unique": [],
      "required": [
        "customerId",
        "productId"
      ],
      "primary": [
        "customerId",
        "productId"
      ],
      "where": [
        "customerId,productId"
      ],
      "defaultOrderBy":"['customerId','asc']",
      "gridCols": [
        "customerId",
        "customerName",
        "productId",
        "productName"
      ],
      "formExclude": ["customerId","productId"],
      "identifier": "id",
      "checkIdExists": true,
      "partialSearchField":"",
      "$jsonSchema": {
        "customerId": {
          "bsonType": "string",
          "description": "Customer Id",
          "label": "Customer ID"
        },
        "customerName": {
          "bsonType": "string",
          "description": "Customer Name",
          "label": "Customer Name"
        },
        "productId": {
          "bsonType": "string",
          "description": "Product Id",
          "label": "Product ID"
        },
        "productName": {
          "bsonType": "string",
          "description": "Product Id",
          "label": "Product Name"
        }
      },
      "createSampleData": true,
      "mockerSchema": {
        "customerId": {
          "faker": "random.alphaNumeric(5)"
        },
        "customerName": {
          "faker": "random.alphaNumeric(24)"
        },
        "productId": {
          "faker": "random.alphaNumeric(5)"
        },
        "productName": {
          "faker": "random.alphaNumeric(24)"
        }
      }
    },
    {
      "name": "meeting",
      "index": [],
      "unique": [],
      "required": [
        "clrPh",
        "rcvrPh"
      ],
      "primary": [
        "clrPh",
        "rcvrPh"
      ],
      "where": [
        "mtngId,clrPh"
      ],
      "defaultOrderBy":"['clrPh','asc']",
      "gridCols": [
        "mtngId",
        "clrPh",
        "rcvrPh",
        "chnl",
        "tkn",
        "clStts",
        "strtTm",
        "endTm"
      ],
      "formExclude": [],
      "identifier": "id",
      "checkIdExists": true,
      "partialSearchField":"clrPh",
      "$jsonSchema": {
        "mtngId": {
          "bsonType": "string",
          "minLength": 0,
          "maxLength": 50,
          "description": "Meeting ID",
          "label": "Meeting ID"
        },
        "clrPh": {
          "bsonType": "string",
          "minLength": 0,
          "maxLength": 12,
          "description": "Caller phone number",
          "label": "Caller Phone"
        },
        "rcvrPh": {
          "bsonType": "string",
          "minLength": 4,
          "maxLength": 12,
          "description": "Receiver Phone number",
          "label": "Receiver Phone"
        },
        "chnl": {
          "bsonType": "string",
          "minLength": 0,
          "maxLength": 100,
          "description": "Conference channel id",
          "label": "Channel ID"
        },
        "tkn": {
          "bsonType": "string",
          "minLength": 0,
          "maxLength": 250,
          "description": "Conference token",
          "label": "Token"
        },
        "clStts": {
          "bsonType": "number",
          "enum": [0,1,2,3,4,5],
          "description": "Call status. 0=New Call, 1=Call Accepted, 2=Call Rejected, 3=Running",
          "label": "Call Status"
        },
        "strtTm": {
          "bsonType": "date",
          "description": "Meeting start time",
          "label": "Meeting Start Time"
        },
        "endTm": {
          "bsonType": "date",
          "description": "Meeting end time",
          "label": "Meeting End Time"
        }
      },
      "createSampleData": true,
      "mockerSchema": {
        "mtngId": {
          "faker": "random.alphaNumeric(50)"
        },
        "clrPh": {
          "faker": "phone.phoneNumber(+1##########)"
        },
        "rcvrPh": {
          "faker": "phone.phoneNumber(+1##########)"
        },
        "chnl": {
          "faker": "random.alphaNumeric(50)"
        },
        "tkn": {
          "faker": "random.alphaNumeric(50)"
        },
        "clStts": {
          "faker": "random.number({\"min\":0,\"max\":2,\"precision\":0})"
        },
        "strtTm":{
          "faker": "date.past"
        },
        "endTm":{
          "faker": "date.past"
        }
      }
    },    
    {
      "name": "appCods",
      "index": [
        "code"
      ],
      "unique": [
        "code"
      ],
      "required": [
        "lng",
        "code",
        "titl",
        "msg",
        "httpCode",
        "actn"
      ],
      "primary": [
        "code",
        "titl"
      ],
      "where": [
        "code,titl"
      ],
      "defaultOrderBy":"['code','asc']",
      "gridCols": [
        "lng",
        "code",
        "titl",
        "msg",
        "httpCode",
        "actn"
      ],
      "formExclude": [],
      "identifier": "id",
      "partialSearchField":"code",
      "checkIdExists": true,
      "$jsonSchema": {
        "lng": {
          "bsonType": "string",
          "minLength": 5,
          "maxLength": 5,
          "description": "Language",
          "label": "Language"
        },
        "code": {
          "bsonType": "string",
          "minLength": 5,
          "maxLength": 50,
          "description": "application code. Ex: E0000, S0000",
          "label": "App Code"
        },
        "titl": {
          "bsonType": "string",
          "minLength": 5,
          "maxLength": 100,
          "description": "App code short description",
          "label": "Title"
        },
        "msg": {
          "bsonType": "string",
          "minLength": 10,
          "maxLength": 100,
          "description": "App code long description",
          "label": "Message"
        },
        "httpCode": {
          "bsonType": "int",
          "description": "HTTP code associated with the app code",
          "label": "HTTP Code"
        },
        "actn": {
          "bsonType": "int",
          "description": "Log action code.",
          "label": "Log Action"
        }
      },
      "createSampleData": true,
      "mockerSchema": {
        "lang": {
          "values": ["te-IN", "en-US"]
        },
        "code": {
          "faker": "random.alphaNumeric(50)"
        },
        "titl": {
          "faker": "random.alphaNumeric(10)"
        },
        "msg": {
          "faker": "random.alphaNumeric(20)"
        },
        "httpCode": {
          "faker": "random.alphaNumeric(20)"
        },
        "actn": {
          "values":[1,0]
        }
      }
    },
    {
      "name": "appConf",
      "index": [
        "lbl"
      ],
      "unique": [
        "lbl"
      ],
      "required": [
        "lbl",
        "lng",
        "data"
      ],
      "primary": [
        "lbl"
      ],
      "where": [
        "lbl"
      ],
      "defaultOrderBy":"['lbl']",
      "gridCols": [
        "lbl",
        "lng"
      ],
      "formExclude": [],
      "identifier": "id",
      "partialSearchField":"lbl",
      "checkIdExists": true,
      "$jsonSchema": {
        "lng": {
          "bsonType": "string",
          "minLength": 5,
          "maxLength": 5,
          "description": "Language",
          "label": "Language"
        },
        "lbl": {
          "bsonType": "string",
          "minLength": 3,
          "maxLength": 50,
          "description": "Label that represent the data",
          "label": "Label"
        },
        "data": {
          "bsonType": "object",
          "description": "Data",
          "label": "Data",
          "properties":{}
        }
      },
      "createSampleData": true,
      "mockerSchema": {}
    }
  ],
  "reports": [
    {
      "route": "summaryReport",
      "title": "Summary Report",
      "$jsonSchema": {
        "field1": {
          "bsonType": "string",
          "minLength": 3,
          "maxLength": 50,
          "description": "About field 1",
          "label": "Field 1"
        },
        "field2": {
          "bsonType": "int" ,
          "description": "About field 2",
          "label": "Field 2"
        },
        "field3": {
          "bsonType": "boolean",
          "description": "About field 3",
          "label": "Field 3"
        },
        "field4": {
          "bsonType": "object",
          "description": "About field 4",
          "label": "Field 4",
          "properties":{}
        },
        "field5": {
          "bsonType": "decimal",
          "description": "About field 5",
          "label": "Field 5"
        },
        "field6": {
          "bsonType": "date",
          "description": "About field 6",
          "label": "Field 6"
        },
        "field7": {
          "bsonType": "array",
          "description": "About field 7",
          "label": "Field 7"
        }
      }
    },            
    {
      "route": "financeReport",
      "title": "Finance Report",
      "$jsonSchema": {
        "field1": {
          "bsonType": "string",
          "minLength": 3,
          "maxLength": 50,
          "description": "About field 1",
          "label": "Field 1"
        },
        "field2": {
          "bsonType": "int" ,
          "description": "About field 2",
          "label": "Field 2"
        },
        "field3": {
          "bsonType": "boolean",
          "description": "About field 3",
          "label": "Field 3"
        },
        "field4": {
          "bsonType": "object",
          "description": "About field 4",
          "label": "Field 4",
          "properties":{}
        },
        "field5": {
          "bsonType": "decimal",
          "description": "About field 5",
          "label": "Field 5"
        },
        "field6": {
          "bsonType": "date",
          "description": "About field 6",
          "label": "Field 6"
        },
        "field7": {
          "bsonType": "array",
          "description": "About field 7",
          "label": "Field 7"
        }
      }
    }
  ],
  "ide": "vscode",
  "menu": [
    {
      "label": "Home",
      "routerLink": [
        "/home/dashboard"
      ],
      "icon": "pi pi-fw pi-home",
      "roles": "0,1,2,3"
    },
    {
      "label": "Timesheet",
      "icon": "pi pi-fw pi-file-o",
      "routerLink": "/admin/timesheets",
      "roles": "0,1,2,3"
    },
    {
      "label": "Admin",
      "icon": "pi pi-fw pi-user",
      "items": [
        {
          "label": "Users",
          "routerLink": "/admin/users"
        },
        {
          "label": "Clients",
          "routerLink": "/admin/clients"
        },
        {
          "label": "Users_clients",
          "routerLink": "/admin/users_clients"
        },
        {
          "label": "Timesheets",
          "routerLink": "/admin/timesheets"
        },
        {
          "label": "Comments",
          "routerLink": "/admin/comments"
        },
        {
          "label": "Timesheet_entry",
          "routerLink": "/admin/timesheet_entry"
        }
      ]
    },
    {
      "label": "Reports",
      "icon": "pi pi-fw pi-file",
      "items": [
        {
          "label": "Report 1"
        },
        {
          "label": "Report 2"
        }
      ]
    },
    {
      "label": "|"
    },
    {
      "icon": "pi pi-fw pi-user",
      "items": [
        {
          "label": "Logout",
          "icon": "pi pi-fw pi-sign-out",
          "routerLink": "/auth/logout"
        },
        {
          "label": "Change Password",
          "icon": "pi pi-fw pi-pencil",
          "routerLink": "/auth/changePassword"
        },
        {
          "label": "App Monitor",
          "icon": "pi pi-fw pi-sliders-h",
          "routerLink": "/admin/appmonitor"
        }
      ]
    }
  ],
  "include": [
    "()"
  ]
}